<svg width="296" height="83" viewBox="0 0 296 83" fill="none" xmlns="http://www.w3.org/2000/svg">
<rect x="125" y="59" width="47" height="24" rx="12" fill="#CBE2F9"/>
<path d="M135.412 71.46L136.864 67.464H136.888L138.316 71.46H135.412ZM136.264 66.432L132.928 75H134.092L135.052 72.42H138.676L139.612 75H140.872L137.524 66.432H136.264ZM141.609 66.432V75H142.629V66.432H141.609ZM144.245 68.796V77.364H145.265V74.172H145.289C145.401 74.356 145.537 74.512 145.697 74.64C145.865 74.76 146.041 74.856 146.225 74.928C146.409 75 146.593 75.052 146.777 75.084C146.969 75.116 147.141 75.132 147.293 75.132C147.765 75.132 148.177 75.048 148.529 74.88C148.889 74.712 149.185 74.484 149.417 74.196C149.657 73.9 149.833 73.556 149.945 73.164C150.065 72.772 150.125 72.356 150.125 71.916C150.125 71.476 150.065 71.06 149.945 70.668C149.825 70.276 149.645 69.932 149.405 69.636C149.173 69.332 148.877 69.092 148.517 68.916C148.165 68.74 147.749 68.652 147.269 68.652C146.837 68.652 146.441 68.732 146.081 68.892C145.721 69.044 145.457 69.292 145.289 69.636H145.265V68.796H144.245ZM149.045 71.844C149.045 72.148 149.013 72.444 148.949 72.732C148.885 73.02 148.781 73.276 148.637 73.5C148.493 73.724 148.301 73.904 148.061 74.04C147.829 74.176 147.537 74.244 147.185 74.244C146.833 74.244 146.533 74.18 146.285 74.052C146.037 73.916 145.833 73.74 145.673 73.524C145.521 73.308 145.409 73.06 145.337 72.78C145.265 72.492 145.229 72.196 145.229 71.892C145.229 71.604 145.261 71.32 145.325 71.04C145.397 70.76 145.509 70.512 145.661 70.296C145.813 70.072 146.009 69.892 146.249 69.756C146.489 69.62 146.781 69.552 147.125 69.552C147.453 69.552 147.737 69.616 147.977 69.744C148.225 69.872 148.425 70.044 148.577 70.26C148.737 70.476 148.853 70.724 148.925 71.004C149.005 71.276 149.045 71.556 149.045 71.844ZM151.323 66.432V75H152.343V71.496C152.343 71.216 152.379 70.96 152.451 70.728C152.531 70.488 152.647 70.28 152.799 70.104C152.951 69.928 153.139 69.792 153.363 69.696C153.595 69.6 153.867 69.552 154.179 69.552C154.571 69.552 154.879 69.664 155.103 69.888C155.327 70.112 155.439 70.416 155.439 70.8V75H156.459V70.92C156.459 70.584 156.423 70.28 156.351 70.008C156.287 69.728 156.171 69.488 156.003 69.288C155.835 69.088 155.615 68.932 155.343 68.82C155.071 68.708 154.731 68.652 154.323 68.652C154.139 68.652 153.947 68.672 153.747 68.712C153.555 68.752 153.367 68.816 153.183 68.904C153.007 68.984 152.847 69.092 152.703 69.228C152.559 69.356 152.447 69.516 152.367 69.708H152.343V66.432H151.323ZM163.487 74.976C163.311 75.08 163.067 75.132 162.755 75.132C162.491 75.132 162.279 75.06 162.119 74.916C161.967 74.764 161.891 74.52 161.891 74.184C161.611 74.52 161.283 74.764 160.907 74.916C160.539 75.06 160.139 75.132 159.707 75.132C159.427 75.132 159.159 75.1 158.903 75.036C158.655 74.972 158.439 74.872 158.255 74.736C158.071 74.6 157.923 74.424 157.811 74.208C157.707 73.984 157.655 73.716 157.655 73.404C157.655 73.052 157.715 72.764 157.835 72.54C157.955 72.316 158.111 72.136 158.303 72C158.503 71.856 158.727 71.748 158.975 71.676C159.231 71.604 159.491 71.544 159.755 71.496C160.035 71.44 160.299 71.4 160.547 71.376C160.803 71.344 161.027 71.304 161.219 71.256C161.411 71.2 161.563 71.124 161.675 71.028C161.787 70.924 161.843 70.776 161.843 70.584C161.843 70.36 161.799 70.18 161.711 70.044C161.631 69.908 161.523 69.804 161.387 69.732C161.259 69.66 161.111 69.612 160.943 69.588C160.783 69.564 160.623 69.552 160.463 69.552C160.031 69.552 159.671 69.636 159.383 69.804C159.095 69.964 158.939 70.272 158.915 70.728H157.895C157.911 70.344 157.991 70.02 158.135 69.756C158.279 69.492 158.471 69.28 158.711 69.12C158.951 68.952 159.223 68.832 159.527 68.76C159.839 68.688 160.171 68.652 160.523 68.652C160.803 68.652 161.079 68.672 161.351 68.712C161.631 68.752 161.883 68.836 162.107 68.964C162.331 69.084 162.511 69.256 162.647 69.48C162.783 69.704 162.851 69.996 162.851 70.356V73.548C162.851 73.788 162.863 73.964 162.887 74.076C162.919 74.188 163.015 74.244 163.175 74.244C163.263 74.244 163.367 74.224 163.487 74.184V74.976ZM161.831 71.796C161.703 71.892 161.535 71.964 161.327 72.012C161.119 72.052 160.899 72.088 160.667 72.12C160.443 72.144 160.215 72.176 159.983 72.216C159.751 72.248 159.543 72.304 159.359 72.384C159.175 72.464 159.023 72.58 158.903 72.732C158.791 72.876 158.735 73.076 158.735 73.332C158.735 73.5 158.767 73.644 158.831 73.764C158.903 73.876 158.991 73.968 159.095 74.04C159.207 74.112 159.335 74.164 159.479 74.196C159.623 74.228 159.775 74.244 159.935 74.244C160.271 74.244 160.559 74.2 160.799 74.112C161.039 74.016 161.235 73.9 161.387 73.764C161.539 73.62 161.651 73.468 161.723 73.308C161.795 73.14 161.831 72.984 161.831 72.84V71.796Z" fill="#0B5CAD"/>
<rect x="125" y="59" width="47" height="24" rx="12" stroke="#9DC7F1"/>
<g filter="url(#filter0_dd_1059_29233)">
<rect x="8" y="6" width="280" height="48" rx="4" fill="white" shape-rendering="crispEdges"/>
<path d="M21.0568 26V17.2727H26.2898V18.2102H22.1136V21.1591H25.8977V22.0966H22.1136V26H21.0568ZM30.2273 26.1364C29.5966 26.1364 29.0526 25.9972 28.5952 25.7188C28.1406 25.4375 27.7898 25.0455 27.5426 24.5426C27.2983 24.0369 27.1761 23.4489 27.1761 22.7784C27.1761 22.108 27.2983 21.517 27.5426 21.0057C27.7898 20.4915 28.1335 20.0909 28.5739 19.804C29.017 19.5142 29.5341 19.3693 30.125 19.3693C30.4659 19.3693 30.8026 19.4261 31.1349 19.5398C31.4673 19.6534 31.7699 19.8381 32.0426 20.0938C32.3153 20.3466 32.5327 20.6818 32.6946 21.0994C32.8565 21.517 32.9375 22.0312 32.9375 22.642V23.0682H27.892V22.1989H31.9148C31.9148 21.8295 31.8409 21.5 31.6932 21.2102C31.5483 20.9205 31.3409 20.6918 31.071 20.5241C30.804 20.3565 30.4886 20.2727 30.125 20.2727C29.7244 20.2727 29.3778 20.3722 29.0852 20.571C28.7955 20.767 28.5724 21.0227 28.4162 21.3381C28.2599 21.6534 28.1818 21.9915 28.1818 22.3523V22.9318C28.1818 23.4261 28.267 23.8452 28.4375 24.1889C28.6108 24.5298 28.8509 24.7898 29.1577 24.9688C29.4645 25.1449 29.821 25.233 30.2273 25.233C30.4915 25.233 30.7301 25.196 30.9432 25.1222C31.1591 25.0455 31.3452 24.9318 31.5014 24.7812C31.6577 24.6278 31.7784 24.4375 31.8636 24.2102L32.8352 24.483C32.733 24.8125 32.5611 25.1023 32.3196 25.3523C32.0781 25.5994 31.7798 25.7926 31.4247 25.9318C31.0696 26.0682 30.6705 26.1364 30.2273 26.1364ZM36.3935 26.1534C35.9787 26.1534 35.6023 26.0753 35.2642 25.919C34.9261 25.7599 34.6577 25.5312 34.4588 25.233C34.2599 24.9318 34.1605 24.5682 34.1605 24.142C34.1605 23.767 34.2344 23.4631 34.3821 23.2301C34.5298 22.9943 34.7273 22.8097 34.9744 22.6761C35.2216 22.5426 35.4943 22.4432 35.7926 22.3778C36.0938 22.3097 36.3963 22.2557 36.7003 22.2159C37.098 22.1648 37.4205 22.1264 37.6676 22.1009C37.9176 22.0724 38.0994 22.0256 38.2131 21.9602C38.3295 21.8949 38.3878 21.7812 38.3878 21.6193V21.5852C38.3878 21.1648 38.2727 20.8381 38.0426 20.6051C37.8153 20.3722 37.4702 20.2557 37.0071 20.2557C36.527 20.2557 36.1506 20.3608 35.8778 20.571C35.6051 20.7812 35.4134 21.0057 35.3026 21.2443L34.348 20.9034C34.5185 20.5057 34.7457 20.196 35.0298 19.9744C35.3168 19.75 35.6293 19.5937 35.9673 19.5057C36.3082 19.4148 36.6435 19.3693 36.973 19.3693C37.1832 19.3693 37.4247 19.3949 37.6974 19.446C37.973 19.4943 38.2386 19.5952 38.4943 19.7486C38.7528 19.902 38.9673 20.1335 39.1378 20.4432C39.3082 20.7528 39.3935 21.1676 39.3935 21.6875V26H38.3878V25.1136H38.3366C38.2685 25.2557 38.1548 25.4077 37.9957 25.5696C37.8366 25.7315 37.625 25.8693 37.3608 25.983C37.0966 26.0966 36.7741 26.1534 36.3935 26.1534ZM36.5469 25.25C36.9446 25.25 37.2798 25.1719 37.5526 25.0156C37.8281 24.8594 38.0355 24.6577 38.1747 24.4105C38.3168 24.1634 38.3878 23.9034 38.3878 23.6307V22.7102C38.3452 22.7614 38.2514 22.8082 38.1065 22.8509C37.9645 22.8906 37.7997 22.9261 37.6122 22.9574C37.4276 22.9858 37.2472 23.0114 37.071 23.0341C36.8977 23.054 36.7571 23.071 36.6491 23.0852C36.3878 23.1193 36.1435 23.1747 35.9162 23.2514C35.6918 23.3253 35.5099 23.4375 35.3707 23.5881C35.2344 23.7358 35.1662 23.9375 35.1662 24.1932C35.1662 24.5426 35.2955 24.8068 35.554 24.9858C35.8153 25.1619 36.1463 25.25 36.5469 25.25ZM44.0756 19.4545V20.3068H40.6836V19.4545H44.0756ZM41.6722 17.8864H42.6779V24.125C42.6779 24.4091 42.7191 24.6222 42.8015 24.7642C42.8867 24.9034 42.9947 24.9972 43.1254 25.0455C43.2589 25.0909 43.3995 25.1136 43.5472 25.1136C43.658 25.1136 43.7489 25.108 43.82 25.0966C43.891 25.0824 43.9478 25.071 43.9904 25.0625L44.195 25.9659C44.1268 25.9915 44.0316 26.017 43.9094 26.0426C43.7873 26.071 43.6325 26.0852 43.445 26.0852C43.1609 26.0852 42.8825 26.0241 42.6097 25.902C42.3398 25.7798 42.1154 25.5938 41.9364 25.3438C41.7603 25.0938 41.6722 24.7784 41.6722 24.3977V17.8864ZM49.7134 23.3239V19.4545H50.7191V26H49.7134V24.892H49.6452C49.4918 25.2244 49.2532 25.5071 48.9293 25.7401C48.6055 25.9702 48.1964 26.0852 47.7021 26.0852C47.293 26.0852 46.9293 25.9957 46.6112 25.8168C46.293 25.6349 46.043 25.3622 45.8612 24.9986C45.6793 24.6321 45.5884 24.1705 45.5884 23.6136V19.4545H46.5941V23.5455C46.5941 24.0227 46.7276 24.4034 46.9947 24.6875C47.2646 24.9716 47.6083 25.1136 48.0259 25.1136C48.2759 25.1136 48.5302 25.0497 48.7887 24.9219C49.0501 24.794 49.2688 24.598 49.445 24.3338C49.6239 24.0696 49.7134 23.733 49.7134 23.3239ZM52.5611 26V19.4545H53.5327V20.4432H53.6009C53.7202 20.1193 53.9361 19.8565 54.2486 19.6548C54.5611 19.4531 54.9134 19.3523 55.3054 19.3523C55.3793 19.3523 55.4716 19.3537 55.5824 19.3565C55.6932 19.3594 55.777 19.3636 55.8338 19.3693V20.392C55.7997 20.3835 55.7216 20.3707 55.5994 20.3537C55.4801 20.3338 55.3537 20.3239 55.2202 20.3239C54.902 20.3239 54.6179 20.3906 54.3679 20.5241C54.1207 20.6548 53.9247 20.8366 53.7798 21.0696C53.6378 21.2997 53.5668 21.5625 53.5668 21.858V26H52.5611ZM59.571 26.1364C58.9403 26.1364 58.3963 25.9972 57.9389 25.7188C57.4844 25.4375 57.1335 25.0455 56.8864 24.5426C56.642 24.0369 56.5199 23.4489 56.5199 22.7784C56.5199 22.108 56.642 21.517 56.8864 21.0057C57.1335 20.4915 57.4773 20.0909 57.9176 19.804C58.3608 19.5142 58.8778 19.3693 59.4688 19.3693C59.8097 19.3693 60.1463 19.4261 60.4787 19.5398C60.8111 19.6534 61.1136 19.8381 61.3864 20.0938C61.6591 20.3466 61.8764 20.6818 62.0384 21.0994C62.2003 21.517 62.2812 22.0312 62.2812 22.642V23.0682H57.2358V22.1989H61.2585C61.2585 21.8295 61.1847 21.5 61.0369 21.2102C60.892 20.9205 60.6847 20.6918 60.4148 20.5241C60.1477 20.3565 59.8324 20.2727 59.4688 20.2727C59.0682 20.2727 58.7216 20.3722 58.429 20.571C58.1392 20.767 57.9162 21.0227 57.7599 21.3381C57.6037 21.6534 57.5256 21.9915 57.5256 22.3523V22.9318C57.5256 23.4261 57.6108 23.8452 57.7812 24.1889C57.9545 24.5298 58.1946 24.7898 58.5014 24.9688C58.8082 25.1449 59.1648 25.233 59.571 25.233C59.8352 25.233 60.0739 25.196 60.2869 25.1222C60.5028 25.0455 60.6889 24.9318 60.8452 24.7812C61.0014 24.6278 61.1222 24.4375 61.2074 24.2102L62.179 24.483C62.0767 24.8125 61.9048 25.1023 61.6634 25.3523C61.4219 25.5994 61.1236 25.7926 60.7685 25.9318C60.4134 26.0682 60.0142 26.1364 59.571 26.1364ZM68.4474 20.9205L67.544 21.1761C67.4872 21.0256 67.4034 20.8793 67.2926 20.7372C67.1847 20.5923 67.0369 20.473 66.8494 20.3793C66.6619 20.2855 66.4219 20.2386 66.1293 20.2386C65.7287 20.2386 65.3949 20.331 65.1278 20.5156C64.8636 20.6974 64.7315 20.929 64.7315 21.2102C64.7315 21.4602 64.8224 21.6577 65.0043 21.8026C65.1861 21.9474 65.4702 22.0682 65.8565 22.1648L66.8281 22.4034C67.4134 22.5455 67.8494 22.7628 68.1364 23.0554C68.4233 23.3452 68.5668 23.7187 68.5668 24.1761C68.5668 24.5511 68.4588 24.8864 68.2429 25.1818C68.0298 25.4773 67.7315 25.7102 67.348 25.8807C66.9645 26.0511 66.5185 26.1364 66.0099 26.1364C65.3423 26.1364 64.7898 25.9915 64.3523 25.7017C63.9148 25.4119 63.6378 24.9886 63.5213 24.4318L64.4759 24.1932C64.5668 24.5455 64.7386 24.8097 64.9915 24.9858C65.2472 25.1619 65.581 25.25 65.9929 25.25C66.4616 25.25 66.8338 25.1506 67.1094 24.9517C67.3878 24.75 67.527 24.5085 67.527 24.2273C67.527 24 67.4474 23.8097 67.2884 23.6562C67.1293 23.5 66.8849 23.3835 66.5554 23.3068L65.4645 23.0511C64.8651 22.9091 64.4247 22.6889 64.1435 22.3906C63.8651 22.0895 63.7259 21.7131 63.7259 21.2614C63.7259 20.892 63.8295 20.5653 64.0369 20.2812C64.2472 19.9972 64.5327 19.7741 64.8935 19.6122C65.2571 19.4503 65.669 19.3693 66.1293 19.3693C66.777 19.3693 67.2855 19.5114 67.6548 19.7955C68.027 20.0795 68.2912 20.4545 68.4474 20.9205ZM73.4556 26V19.4545H74.4613V26H73.4556ZM73.967 18.3636C73.771 18.3636 73.6019 18.2969 73.4599 18.1634C73.3207 18.0298 73.2511 17.8693 73.2511 17.6818C73.2511 17.4943 73.3207 17.3338 73.4599 17.2003C73.6019 17.0668 73.771 17 73.967 17C74.163 17 74.3306 17.0668 74.4698 17.2003C74.6119 17.3338 74.6829 17.4943 74.6829 17.6818C74.6829 17.8693 74.6119 18.0298 74.4698 18.1634C74.3306 18.2969 74.163 18.3636 73.967 18.3636ZM77.3089 22.0625V26H76.3033V19.4545H77.2749V20.4773H77.3601C77.5135 20.1449 77.7464 19.8778 78.0589 19.6761C78.3714 19.4716 78.7749 19.3693 79.2692 19.3693C79.7124 19.3693 80.1001 19.4602 80.4325 19.642C80.7649 19.821 81.0234 20.0938 81.2081 20.4602C81.3928 20.8239 81.4851 21.2841 81.4851 21.8409V26H80.4794V21.9091C80.4794 21.3949 80.3459 20.9943 80.0788 20.7074C79.8118 20.4176 79.4453 20.2727 78.9794 20.2727C78.6584 20.2727 78.3714 20.3423 78.1186 20.4815C77.8686 20.6207 77.6712 20.8239 77.5263 21.0909C77.3814 21.358 77.3089 21.6818 77.3089 22.0625ZM124.378 26.1534C123.963 26.1534 123.587 26.0753 123.249 25.919C122.911 25.7599 122.642 25.5312 122.443 25.233C122.244 24.9318 122.145 24.5682 122.145 24.142C122.145 23.767 122.219 23.4631 122.366 23.2301C122.514 22.9943 122.712 22.8097 122.959 22.6761C123.206 22.5426 123.479 22.4432 123.777 22.3778C124.078 22.3097 124.381 22.2557 124.685 22.2159C125.082 22.1648 125.405 22.1264 125.652 22.1009C125.902 22.0724 126.084 22.0256 126.197 21.9602C126.314 21.8949 126.372 21.7812 126.372 21.6193V21.5852C126.372 21.1648 126.257 20.8381 126.027 20.6051C125.8 20.3722 125.455 20.2557 124.991 20.2557C124.511 20.2557 124.135 20.3608 123.862 20.571C123.589 20.7812 123.398 21.0057 123.287 21.2443L122.332 20.9034C122.503 20.5057 122.73 20.196 123.014 19.9744C123.301 19.75 123.614 19.5937 123.952 19.5057C124.293 19.4148 124.628 19.3693 124.957 19.3693C125.168 19.3693 125.409 19.3949 125.682 19.446C125.957 19.4943 126.223 19.5952 126.479 19.7486C126.737 19.902 126.952 20.1335 127.122 20.4432C127.293 20.7528 127.378 21.1676 127.378 21.6875V26H126.372V25.1136H126.321C126.253 25.2557 126.139 25.4077 125.98 25.5696C125.821 25.7315 125.609 25.8693 125.345 25.983C125.081 26.0966 124.759 26.1534 124.378 26.1534ZM124.531 25.25C124.929 25.25 125.264 25.1719 125.537 25.0156C125.813 24.8594 126.02 24.6577 126.159 24.4105C126.301 24.1634 126.372 23.9034 126.372 23.6307V22.7102C126.33 22.7614 126.236 22.8082 126.091 22.8509C125.949 22.8906 125.784 22.9261 125.597 22.9574C125.412 22.9858 125.232 23.0114 125.055 23.0341C124.882 23.054 124.741 23.071 124.634 23.0852C124.372 23.1193 124.128 23.1747 123.901 23.2514C123.676 23.3253 123.494 23.4375 123.355 23.5881C123.219 23.7358 123.151 23.9375 123.151 24.1932C123.151 24.5426 123.28 24.8068 123.538 24.9858C123.8 25.1619 124.131 25.25 124.531 25.25ZM129.213 26V19.4545H130.185V20.4432H130.253C130.373 20.1193 130.588 19.8565 130.901 19.6548C131.213 19.4531 131.566 19.3523 131.958 19.3523C132.032 19.3523 132.124 19.3537 132.235 19.3565C132.346 19.3594 132.429 19.3636 132.486 19.3693V20.392C132.452 20.3835 132.374 20.3707 132.252 20.3537C132.132 20.3338 132.006 20.3239 131.873 20.3239C131.554 20.3239 131.27 20.3906 131.02 20.5241C130.773 20.6548 130.577 20.8366 130.432 21.0696C130.29 21.2997 130.219 21.5625 130.219 21.858V26H129.213ZM136.223 26.1364C135.593 26.1364 135.049 25.9972 134.591 25.7188C134.137 25.4375 133.786 25.0455 133.539 24.5426C133.294 24.0369 133.172 23.4489 133.172 22.7784C133.172 22.108 133.294 21.517 133.539 21.0057C133.786 20.4915 134.13 20.0909 134.57 19.804C135.013 19.5142 135.53 19.3693 136.121 19.3693C136.462 19.3693 136.799 19.4261 137.131 19.5398C137.463 19.6534 137.766 19.8381 138.039 20.0938C138.311 20.3466 138.529 20.6818 138.691 21.0994C138.853 21.517 138.934 22.0312 138.934 22.642V23.0682H133.888V22.1989H137.911C137.911 21.8295 137.837 21.5 137.689 21.2102C137.544 20.9205 137.337 20.6918 137.067 20.5241C136.8 20.3565 136.485 20.2727 136.121 20.2727C135.721 20.2727 135.374 20.3722 135.081 20.571C134.792 20.767 134.569 21.0227 134.412 21.3381C134.256 21.6534 134.178 21.9915 134.178 22.3523V22.9318C134.178 23.4261 134.263 23.8452 134.434 24.1889C134.607 24.5298 134.847 24.7898 135.154 24.9688C135.461 25.1449 135.817 25.233 136.223 25.233C136.488 25.233 136.726 25.196 136.939 25.1222C137.155 25.0455 137.341 24.9318 137.498 24.7812C137.654 24.6278 137.775 24.4375 137.86 24.2102L138.831 24.483C138.729 24.8125 138.557 25.1023 138.316 25.3523C138.074 25.5994 137.776 25.7926 137.421 25.9318C137.066 26.0682 136.667 26.1364 136.223 26.1364ZM141.469 22.0625V26H140.463V19.4545H141.435V20.4773H141.52C141.674 20.1449 141.907 19.8778 142.219 19.6761C142.532 19.4716 142.935 19.3693 143.429 19.3693C143.873 19.3693 144.26 19.4602 144.593 19.642C144.925 19.821 145.184 20.0938 145.368 20.4602C145.553 20.8239 145.645 21.2841 145.645 21.8409V26H144.64V21.9091C144.64 21.3949 144.506 20.9943 144.239 20.7074C143.972 20.4176 143.605 20.2727 143.14 20.2727C142.819 20.2727 142.532 20.3423 142.279 20.4815C142.029 20.6207 141.831 20.8239 141.686 21.0909C141.542 21.358 141.469 21.6818 141.469 22.0625ZM148.352 17.2727V20.2727H147.415V17.2727H148.352ZM152.99 19.4545V20.3068H149.598V19.4545H152.99ZM150.586 17.8864H151.592V24.125C151.592 24.4091 151.633 24.6222 151.716 24.7642C151.801 24.9034 151.909 24.9972 152.039 25.0455C152.173 25.0909 152.314 25.1136 152.461 25.1136C152.572 25.1136 152.663 25.108 152.734 25.0966C152.805 25.0824 152.862 25.071 152.904 25.0625L153.109 25.9659C153.041 25.9915 152.946 26.017 152.824 26.0426C152.701 26.071 152.547 26.0852 152.359 26.0852C152.075 26.0852 151.797 26.0241 151.524 25.902C151.254 25.7798 151.029 25.5938 150.85 25.3438C150.674 25.0938 150.586 24.7784 150.586 24.3977V17.8864ZM160.792 19.4545V20.3068H157.264V19.4545H160.792ZM158.321 26V18.5511C158.321 18.1761 158.409 17.8636 158.585 17.6136C158.761 17.3636 158.99 17.1761 159.271 17.0511C159.552 16.9261 159.849 16.8636 160.162 16.8636C160.409 16.8636 160.61 16.8835 160.767 16.9233C160.923 16.9631 161.039 17 161.116 17.0341L160.826 17.9034C160.775 17.8864 160.704 17.8651 160.613 17.8395C160.525 17.8139 160.409 17.8011 160.264 17.8011C159.931 17.8011 159.691 17.8849 159.544 18.0526C159.399 18.2202 159.326 18.4659 159.326 18.7898V26H158.321ZM166.327 23.3239V19.4545H167.332V26H166.327V24.892H166.259C166.105 25.2244 165.866 25.5071 165.543 25.7401C165.219 25.9702 164.81 26.0852 164.315 26.0852C163.906 26.0852 163.543 25.9957 163.224 25.8168C162.906 25.6349 162.656 25.3622 162.474 24.9986C162.293 24.6321 162.202 24.1705 162.202 23.6136V19.4545H163.207V23.5455C163.207 24.0227 163.341 24.4034 163.608 24.6875C163.878 24.9716 164.222 25.1136 164.639 25.1136C164.889 25.1136 165.143 25.0497 165.402 24.9219C165.663 24.794 165.882 24.598 166.058 24.3338C166.237 24.0696 166.327 23.733 166.327 23.3239ZM169.174 17.2727H170.18V24.2955C170.18 24.6136 170.216 24.8366 170.287 24.9645C170.358 25.0923 170.504 25.1534 170.725 25.1477C170.845 25.142 170.933 25.1335 170.99 25.1222C171.049 25.108 171.103 25.0938 171.152 25.0795L171.356 25.9489C171.268 25.9744 171.157 25.9972 171.024 26.017C170.89 26.0398 170.751 26.0511 170.606 26.0511C170.129 26.0511 169.771 25.9205 169.532 25.6591C169.294 25.3977 169.174 25.0341 169.174 24.5682V17.2727ZM172.456 17.2727H173.461V24.2955C173.461 24.6136 173.497 24.8366 173.568 24.9645C173.639 25.0923 173.785 25.1534 174.007 25.1477C174.126 25.142 174.214 25.1335 174.271 25.1222C174.331 25.108 174.385 25.0938 174.433 25.0795L174.637 25.9489C174.549 25.9744 174.439 25.9972 174.305 26.017C174.172 26.0398 174.032 26.0511 173.887 26.0511C173.41 26.0511 173.052 25.9205 172.814 25.6591C172.575 25.3977 172.456 25.0341 172.456 24.5682V17.2727ZM176.209 28.4545C176.038 28.4545 175.886 28.4403 175.753 28.4119C175.619 28.3864 175.527 28.3608 175.476 28.3352L175.732 27.4489C175.976 27.5114 176.192 27.5341 176.379 27.517C176.567 27.5 176.733 27.4162 176.878 27.2656C177.026 27.1179 177.161 26.8778 177.283 26.5455L177.47 26.0341L175.05 19.4545H176.141L177.947 24.6705H178.016L179.822 19.4545H180.913L178.135 26.9545C178.01 27.2926 177.855 27.5724 177.67 27.794C177.486 28.0185 177.271 28.1847 177.027 28.2926C176.786 28.4006 176.513 28.4545 176.209 28.4545ZM188.462 19.4545V20.3068H185.07V19.4545H188.462ZM186.059 17.8864H187.065V24.125C187.065 24.4091 187.106 24.6222 187.188 24.7642C187.273 24.9034 187.381 24.9972 187.512 25.0455C187.646 25.0909 187.786 25.1136 187.934 25.1136C188.045 25.1136 188.136 25.108 188.207 25.0966C188.278 25.0824 188.335 25.071 188.377 25.0625L188.582 25.9659C188.513 25.9915 188.418 26.017 188.296 26.0426C188.174 26.071 188.019 26.0852 187.832 26.0852C187.548 26.0852 187.269 26.0241 186.996 25.902C186.727 25.7798 186.502 25.5938 186.323 25.3438C186.147 25.0938 186.059 24.7784 186.059 24.3977V17.8864ZM192.649 26.1364C192.018 26.1364 191.474 25.9972 191.017 25.7188C190.562 25.4375 190.212 25.0455 189.964 24.5426C189.72 24.0369 189.598 23.4489 189.598 22.7784C189.598 22.108 189.72 21.517 189.964 21.0057C190.212 20.4915 190.555 20.0909 190.996 19.804C191.439 19.5142 191.956 19.3693 192.547 19.3693C192.888 19.3693 193.224 19.4261 193.557 19.5398C193.889 19.6534 194.192 19.8381 194.464 20.0938C194.737 20.3466 194.955 20.6818 195.116 21.0994C195.278 21.517 195.359 22.0312 195.359 22.642V23.0682H190.314V22.1989H194.337C194.337 21.8295 194.263 21.5 194.115 21.2102C193.97 20.9205 193.763 20.6918 193.493 20.5241C193.226 20.3565 192.911 20.2727 192.547 20.2727C192.146 20.2727 191.8 20.3722 191.507 20.571C191.217 20.767 190.994 21.0227 190.838 21.3381C190.682 21.6534 190.604 21.9915 190.604 22.3523V22.9318C190.604 23.4261 190.689 23.8452 190.859 24.1889C191.033 24.5298 191.273 24.7898 191.58 24.9688C191.886 25.1449 192.243 25.233 192.649 25.233C192.913 25.233 193.152 25.196 193.365 25.1222C193.581 25.0455 193.767 24.9318 193.923 24.7812C194.08 24.6278 194.2 24.4375 194.286 24.2102L195.257 24.483C195.155 24.8125 194.983 25.1023 194.741 25.3523C194.5 25.5994 194.202 25.7926 193.847 25.9318C193.491 26.0682 193.092 26.1364 192.649 26.1364ZM201.526 20.9205L200.622 21.1761C200.565 21.0256 200.482 20.8793 200.371 20.7372C200.263 20.5923 200.115 20.473 199.928 20.3793C199.74 20.2855 199.5 20.2386 199.207 20.2386C198.807 20.2386 198.473 20.331 198.206 20.5156C197.942 20.6974 197.81 20.929 197.81 21.2102C197.81 21.4602 197.901 21.6577 198.082 21.8026C198.264 21.9474 198.548 22.0682 198.935 22.1648L199.906 22.4034C200.491 22.5455 200.928 22.7628 201.214 23.0554C201.501 23.3452 201.645 23.7187 201.645 24.1761C201.645 24.5511 201.537 24.8864 201.321 25.1818C201.108 25.4773 200.81 25.7102 200.426 25.8807C200.043 26.0511 199.597 26.1364 199.088 26.1364C198.42 26.1364 197.868 25.9915 197.43 25.7017C196.993 25.4119 196.716 24.9886 196.599 24.4318L197.554 24.1932C197.645 24.5455 197.817 24.8097 198.07 24.9858C198.325 25.1619 198.659 25.25 199.071 25.25C199.54 25.25 199.912 25.1506 200.188 24.9517C200.466 24.75 200.605 24.5085 200.605 24.2273C200.605 24 200.526 23.8097 200.366 23.6562C200.207 23.5 199.963 23.3835 199.634 23.3068L198.543 23.0511C197.943 22.9091 197.503 22.6889 197.222 22.3906C196.943 22.0895 196.804 21.7131 196.804 21.2614C196.804 20.892 196.908 20.5653 197.115 20.2812C197.325 19.9972 197.611 19.7741 197.972 19.6122C198.335 19.4503 198.747 19.3693 199.207 19.3693C199.855 19.3693 200.364 19.5114 200.733 19.7955C201.105 20.0795 201.369 20.4545 201.526 20.9205ZM206.005 19.4545V20.3068H202.613V19.4545H206.005ZM203.602 17.8864H204.608V24.125C204.608 24.4091 204.649 24.6222 204.731 24.7642C204.816 24.9034 204.924 24.9972 205.055 25.0455C205.189 25.0909 205.329 25.1136 205.477 25.1136C205.588 25.1136 205.679 25.108 205.75 25.0966C205.821 25.0824 205.877 25.071 205.92 25.0625L206.125 25.9659C206.056 25.9915 205.961 26.017 205.839 26.0426C205.717 26.071 205.562 26.0852 205.375 26.0852C205.091 26.0852 204.812 26.0241 204.539 25.902C204.27 25.7798 204.045 25.5938 203.866 25.3438C203.69 25.0938 203.602 24.7784 203.602 24.3977V17.8864ZM210.192 26.1364C209.561 26.1364 209.017 25.9972 208.56 25.7188C208.105 25.4375 207.755 25.0455 207.507 24.5426C207.263 24.0369 207.141 23.4489 207.141 22.7784C207.141 22.108 207.263 21.517 207.507 21.0057C207.755 20.4915 208.098 20.0909 208.539 19.804C208.982 19.5142 209.499 19.3693 210.09 19.3693C210.431 19.3693 210.767 19.4261 211.1 19.5398C211.432 19.6534 211.735 19.8381 212.007 20.0938C212.28 20.3466 212.498 20.6818 212.659 21.0994C212.821 21.517 212.902 22.0312 212.902 22.642V23.0682H207.857V22.1989H211.88C211.88 21.8295 211.806 21.5 211.658 21.2102C211.513 20.9205 211.306 20.6918 211.036 20.5241C210.769 20.3565 210.453 20.2727 210.09 20.2727C209.689 20.2727 209.343 20.3722 209.05 20.571C208.76 20.767 208.537 21.0227 208.381 21.3381C208.225 21.6534 208.147 21.9915 208.147 22.3523V22.9318C208.147 23.4261 208.232 23.8452 208.402 24.1889C208.576 24.5298 208.816 24.7898 209.123 24.9688C209.429 25.1449 209.786 25.233 210.192 25.233C210.456 25.233 210.695 25.196 210.908 25.1222C211.124 25.0455 211.31 24.9318 211.466 24.7812C211.623 24.6278 211.743 24.4375 211.828 24.2102L212.8 24.483C212.698 24.8125 212.526 25.1023 212.284 25.3523C212.043 25.5994 211.745 25.7926 211.39 25.9318C211.034 26.0682 210.635 26.1364 210.192 26.1364ZM216.904 26.1364C216.358 26.1364 215.877 25.9986 215.459 25.723C215.042 25.4446 214.715 25.0526 214.479 24.5469C214.243 24.0384 214.125 23.4375 214.125 22.7443C214.125 22.0568 214.243 21.4602 214.479 20.9545C214.715 20.4489 215.043 20.0582 215.463 19.7827C215.884 19.5071 216.37 19.3693 216.921 19.3693C217.347 19.3693 217.684 19.4403 217.931 19.5824C218.181 19.7216 218.371 19.8807 218.502 20.0597C218.635 20.2358 218.739 20.3807 218.813 20.4943H218.898V17.2727H219.904V26H218.932V24.9943H218.813C218.739 25.1136 218.634 25.2642 218.498 25.446C218.361 25.625 218.167 25.7855 217.914 25.9276C217.661 26.0668 217.324 26.1364 216.904 26.1364ZM217.04 25.233C217.444 25.233 217.784 25.1278 218.063 24.9176C218.341 24.7045 218.553 24.4105 218.698 24.0355C218.843 23.6577 218.915 23.2216 218.915 22.7273C218.915 22.2386 218.844 21.8111 218.702 21.4446C218.56 21.0753 218.35 20.7884 218.071 20.5838C217.793 20.3764 217.449 20.2727 217.04 20.2727C216.614 20.2727 216.259 20.3821 215.975 20.6009C215.694 20.8168 215.482 21.1108 215.34 21.483C215.201 21.8523 215.131 22.267 215.131 22.7273C215.131 23.1932 215.202 23.6165 215.344 23.9972C215.489 24.375 215.702 24.6761 215.983 24.9006C216.267 25.1222 216.62 25.233 217.04 25.233ZM227.186 26.1534C226.772 26.1534 226.395 26.0753 226.057 25.919C225.719 25.7599 225.451 25.5312 225.252 25.233C225.053 24.9318 224.953 24.5682 224.953 24.142C224.953 23.767 225.027 23.4631 225.175 23.2301C225.323 22.9943 225.52 22.8097 225.767 22.6761C226.015 22.5426 226.287 22.4432 226.586 22.3778C226.887 22.3097 227.189 22.2557 227.493 22.2159C227.891 22.1648 228.213 22.1264 228.461 22.1009C228.711 22.0724 228.892 22.0256 229.006 21.9602C229.123 21.8949 229.181 21.7812 229.181 21.6193V21.5852C229.181 21.1648 229.066 20.8381 228.836 20.6051C228.608 20.3722 228.263 20.2557 227.8 20.2557C227.32 20.2557 226.944 20.3608 226.671 20.571C226.398 20.7812 226.206 21.0057 226.096 21.2443L225.141 20.9034C225.311 20.5057 225.539 20.196 225.823 19.9744C226.11 19.75 226.422 19.5937 226.76 19.5057C227.101 19.4148 227.436 19.3693 227.766 19.3693C227.976 19.3693 228.218 19.3949 228.49 19.446C228.766 19.4943 229.032 19.5952 229.287 19.7486C229.546 19.902 229.76 20.1335 229.931 20.4432C230.101 20.7528 230.186 21.1676 230.186 21.6875V26H229.181V25.1136H229.13C229.061 25.2557 228.948 25.4077 228.789 25.5696C228.63 25.7315 228.418 25.8693 228.154 25.983C227.89 26.0966 227.567 26.1534 227.186 26.1534ZM227.34 25.25C227.738 25.25 228.073 25.1719 228.346 25.0156C228.621 24.8594 228.828 24.6577 228.968 24.4105C229.11 24.1634 229.181 23.9034 229.181 23.6307V22.7102C229.138 22.7614 229.044 22.8082 228.9 22.8509C228.757 22.8906 228.593 22.9261 228.405 22.9574C228.221 22.9858 228.04 23.0114 227.864 23.0341C227.691 23.054 227.55 23.071 227.442 23.0852C227.181 23.1193 226.936 23.1747 226.709 23.2514C226.485 23.3253 226.303 23.4375 226.164 23.5881C226.027 23.7358 225.959 23.9375 225.959 24.1932C225.959 24.5426 226.088 24.8068 226.347 24.9858C226.608 25.1619 226.939 25.25 227.34 25.25ZM233.028 22.0625V26H232.022V19.4545H232.994V20.4773H233.079C233.232 20.1449 233.465 19.8778 233.778 19.6761C234.09 19.4716 234.494 19.3693 234.988 19.3693C235.431 19.3693 235.819 19.4602 236.151 19.642C236.484 19.821 236.742 20.0938 236.927 20.4602C237.112 20.8239 237.204 21.2841 237.204 21.8409V26H236.198V21.9091C236.198 21.3949 236.065 20.9943 235.798 20.7074C235.531 20.4176 235.164 20.2727 234.698 20.2727C234.377 20.2727 234.09 20.3423 233.837 20.4815C233.587 20.6207 233.39 20.8239 233.245 21.0909C233.1 21.358 233.028 21.6818 233.028 22.0625ZM241.513 26.1364C240.968 26.1364 240.486 25.9986 240.069 25.723C239.651 25.4446 239.324 25.0526 239.088 24.5469C238.853 24.0384 238.735 23.4375 238.735 22.7443C238.735 22.0568 238.853 21.4602 239.088 20.9545C239.324 20.4489 239.652 20.0582 240.073 19.7827C240.493 19.5071 240.979 19.3693 241.53 19.3693C241.956 19.3693 242.293 19.4403 242.54 19.5824C242.79 19.7216 242.98 19.8807 243.111 20.0597C243.245 20.2358 243.348 20.3807 243.422 20.4943H243.507V17.2727H244.513V26H243.542V24.9943H243.422C243.348 25.1136 243.243 25.2642 243.107 25.446C242.971 25.625 242.776 25.7855 242.523 25.9276C242.27 26.0668 241.934 26.1364 241.513 26.1364ZM241.65 25.233C242.053 25.233 242.394 25.1278 242.672 24.9176C242.951 24.7045 243.162 24.4105 243.307 24.0355C243.452 23.6577 243.525 23.2216 243.525 22.7273C243.525 22.2386 243.453 21.8111 243.311 21.4446C243.169 21.0753 242.959 20.7884 242.681 20.5838C242.402 20.3764 242.059 20.2727 241.65 20.2727C241.223 20.2727 240.868 20.3821 240.584 20.6009C240.303 20.8168 240.091 21.1108 239.949 21.483C239.81 21.8523 239.74 22.267 239.74 22.7273C239.74 23.1932 239.811 23.6165 239.953 23.9972C240.098 24.375 240.311 24.6761 240.593 24.9006C240.877 25.1222 241.229 25.233 241.65 25.233ZM249.87 26V19.4545H250.841V20.4773H250.926C251.063 20.1278 251.283 19.8565 251.587 19.6634C251.891 19.4673 252.256 19.3693 252.682 19.3693C253.114 19.3693 253.473 19.4673 253.76 19.6634C254.05 19.8565 254.276 20.1278 254.438 20.4773H254.506C254.674 20.1392 254.925 19.8707 255.26 19.6719C255.596 19.4702 255.998 19.3693 256.466 19.3693C257.051 19.3693 257.53 19.5526 257.902 19.919C258.275 20.2827 258.461 20.8494 258.461 21.6193V26H257.455V21.6193C257.455 21.1364 257.323 20.7912 257.059 20.5838C256.794 20.3764 256.483 20.2727 256.125 20.2727C255.665 20.2727 255.309 20.4119 255.056 20.6903C254.803 20.9659 254.676 21.3153 254.676 21.7386V26H253.654V21.517C253.654 21.1449 253.533 20.8452 253.292 20.6179C253.05 20.3878 252.739 20.2727 252.358 20.2727C252.097 20.2727 251.853 20.3423 251.625 20.4815C251.401 20.6207 251.219 20.8139 251.08 21.0611C250.944 21.3054 250.875 21.5881 250.875 21.9091V26H249.87ZM262.225 26.1534C261.811 26.1534 261.434 26.0753 261.096 25.919C260.758 25.7599 260.49 25.5312 260.291 25.233C260.092 24.9318 259.993 24.5682 259.993 24.142C259.993 23.767 260.066 23.4631 260.214 23.2301C260.362 22.9943 260.559 22.8097 260.806 22.6761C261.054 22.5426 261.326 22.4432 261.625 22.3778C261.926 22.3097 262.228 22.2557 262.532 22.2159C262.93 22.1648 263.252 22.1264 263.5 22.1009C263.75 22.0724 263.931 22.0256 264.045 21.9602C264.162 21.8949 264.22 21.7812 264.22 21.6193V21.5852C264.22 21.1648 264.105 20.8381 263.875 20.6051C263.647 20.3722 263.302 20.2557 262.839 20.2557C262.359 20.2557 261.983 20.3608 261.71 20.571C261.437 20.7812 261.245 21.0057 261.135 21.2443L260.18 20.9034C260.35 20.5057 260.578 20.196 260.862 19.9744C261.149 19.75 261.461 19.5937 261.799 19.5057C262.14 19.4148 262.475 19.3693 262.805 19.3693C263.015 19.3693 263.257 19.3949 263.529 19.446C263.805 19.4943 264.071 19.5952 264.326 19.7486C264.585 19.902 264.799 20.1335 264.97 20.4432C265.14 20.7528 265.225 21.1676 265.225 21.6875V26H264.22V25.1136H264.169C264.1 25.2557 263.987 25.4077 263.828 25.5696C263.669 25.7315 263.457 25.8693 263.193 25.983C262.929 26.0966 262.606 26.1534 262.225 26.1534ZM262.379 25.25C262.777 25.25 263.112 25.1719 263.385 25.0156C263.66 24.8594 263.868 24.6577 264.007 24.4105C264.149 24.1634 264.22 23.9034 264.22 23.6307V22.7102C264.177 22.7614 264.083 22.8082 263.939 22.8509C263.797 22.8906 263.632 22.9261 263.444 22.9574C263.26 22.9858 263.079 23.0114 262.903 23.0341C262.73 23.054 262.589 23.071 262.481 23.0852C262.22 23.1193 261.975 23.1747 261.748 23.2514C261.524 23.3253 261.342 23.4375 261.203 23.5881C261.066 23.7358 260.998 23.9375 260.998 24.1932C260.998 24.5426 261.127 24.8068 261.386 24.9858C261.647 25.1619 261.978 25.25 262.379 25.25ZM267.474 28.4545C267.304 28.4545 267.152 28.4403 267.018 28.4119C266.885 28.3864 266.793 28.3608 266.741 28.3352L266.997 27.4489C267.241 27.5114 267.457 27.5341 267.645 27.517C267.832 27.5 267.999 27.4162 268.143 27.2656C268.291 27.1179 268.426 26.8778 268.548 26.5455L268.736 26.0341L266.315 19.4545H267.406L269.213 24.6705H269.281L271.088 19.4545H272.179L269.401 26.9545C269.276 27.2926 269.121 27.5724 268.936 27.794C268.751 28.0185 268.537 28.1847 268.293 28.2926C268.051 28.4006 267.778 28.4545 267.474 28.4545ZM21.0568 42V33.2727H22.0625V36.4943H22.1477C22.2216 36.3807 22.3239 36.2358 22.4545 36.0597C22.5881 35.8807 22.7784 35.7216 23.0256 35.5824C23.2756 35.4403 23.6136 35.3693 24.0398 35.3693C24.5909 35.3693 25.0767 35.5071 25.4972 35.7827C25.9176 36.0582 26.2457 36.4489 26.4815 36.9545C26.7173 37.4602 26.8352 38.0568 26.8352 38.7443C26.8352 39.4375 26.7173 40.0384 26.4815 40.5469C26.2457 41.0526 25.919 41.4446 25.5014 41.723C25.0838 41.9986 24.6023 42.1364 24.0568 42.1364C23.6364 42.1364 23.2997 42.0668 23.0469 41.9276C22.794 41.7855 22.5994 41.625 22.4631 41.446C22.3267 41.2642 22.2216 41.1136 22.1477 40.9943H22.0284V42H21.0568ZM22.0455 38.7273C22.0455 39.2216 22.1179 39.6577 22.2628 40.0355C22.4077 40.4105 22.6193 40.7045 22.8977 40.9176C23.1761 41.1278 23.517 41.233 23.9205 41.233C24.3409 41.233 24.6918 41.1222 24.973 40.9006C25.2571 40.6761 25.4702 40.375 25.6122 39.9972C25.7571 39.6165 25.8295 39.1932 25.8295 38.7273C25.8295 38.267 25.7585 37.8523 25.6165 37.483C25.4773 37.1108 25.2656 36.8168 24.9815 36.6009C24.7003 36.3821 24.3466 36.2727 23.9205 36.2727C23.5114 36.2727 23.1676 36.3764 22.8892 36.5838C22.6108 36.7884 22.4006 37.0753 22.2585 37.4446C22.1165 37.8111 22.0455 38.2386 22.0455 38.7273ZM28.3736 42V35.4545H29.3452V36.4432H29.4134C29.5327 36.1193 29.7486 35.8565 30.0611 35.6548C30.3736 35.4531 30.7259 35.3523 31.1179 35.3523C31.1918 35.3523 31.2841 35.3537 31.3949 35.3565C31.5057 35.3594 31.5895 35.3636 31.6463 35.3693V36.392C31.6122 36.3835 31.5341 36.3707 31.4119 36.3537C31.2926 36.3338 31.1662 36.3239 31.0327 36.3239C30.7145 36.3239 30.4304 36.3906 30.1804 36.5241C29.9332 36.6548 29.7372 36.8366 29.5923 37.0696C29.4503 37.2997 29.3793 37.5625 29.3793 37.858V42H28.3736ZM35.3835 42.1364C34.7528 42.1364 34.2088 41.9972 33.7514 41.7188C33.2969 41.4375 32.946 41.0455 32.6989 40.5426C32.4545 40.0369 32.3324 39.4489 32.3324 38.7784C32.3324 38.108 32.4545 37.517 32.6989 37.0057C32.946 36.4915 33.2898 36.0909 33.7301 35.804C34.1733 35.5142 34.6903 35.3693 35.2812 35.3693C35.6222 35.3693 35.9588 35.4261 36.2912 35.5398C36.6236 35.6534 36.9261 35.8381 37.1989 36.0938C37.4716 36.3466 37.6889 36.6818 37.8509 37.0994C38.0128 37.517 38.0938 38.0312 38.0938 38.642V39.0682H33.0483V38.1989H37.071C37.071 37.8295 36.9972 37.5 36.8494 37.2102C36.7045 36.9205 36.4972 36.6918 36.2273 36.5241C35.9602 36.3565 35.6449 36.2727 35.2812 36.2727C34.8807 36.2727 34.5341 36.3722 34.2415 36.571C33.9517 36.767 33.7287 37.0227 33.5724 37.3381C33.4162 37.6534 33.3381 37.9915 33.3381 38.3523V38.9318C33.3381 39.4261 33.4233 39.8452 33.5938 40.1889C33.767 40.5298 34.0071 40.7898 34.3139 40.9688C34.6207 41.1449 34.9773 41.233 35.3835 41.233C35.6477 41.233 35.8864 41.196 36.0994 41.1222C36.3153 41.0455 36.5014 40.9318 36.6577 40.7812C36.8139 40.6278 36.9347 40.4375 37.0199 40.2102L37.9915 40.483C37.8892 40.8125 37.7173 41.1023 37.4759 41.3523C37.2344 41.5994 36.9361 41.7926 36.581 41.9318C36.2259 42.0682 35.8267 42.1364 35.3835 42.1364ZM41.5497 42.1534C41.1349 42.1534 40.7585 42.0753 40.4205 41.919C40.0824 41.7599 39.8139 41.5312 39.6151 41.233C39.4162 40.9318 39.3168 40.5682 39.3168 40.142C39.3168 39.767 39.3906 39.4631 39.5384 39.2301C39.6861 38.9943 39.8835 38.8097 40.1307 38.6761C40.3778 38.5426 40.6506 38.4432 40.9489 38.3778C41.25 38.3097 41.5526 38.2557 41.8565 38.2159C42.2543 38.1648 42.5767 38.1264 42.8239 38.1009C43.0739 38.0724 43.2557 38.0256 43.3693 37.9602C43.4858 37.8949 43.544 37.7812 43.544 37.6193V37.5852C43.544 37.1648 43.429 36.8381 43.1989 36.6051C42.9716 36.3722 42.6264 36.2557 42.1634 36.2557C41.6832 36.2557 41.3068 36.3608 41.0341 36.571C40.7614 36.7812 40.5696 37.0057 40.4588 37.2443L39.5043 36.9034C39.6747 36.5057 39.902 36.196 40.1861 35.9744C40.473 35.75 40.7855 35.5937 41.1236 35.5057C41.4645 35.4148 41.7997 35.3693 42.1293 35.3693C42.3395 35.3693 42.581 35.3949 42.8537 35.446C43.1293 35.4943 43.3949 35.5952 43.6506 35.7486C43.9091 35.902 44.1236 36.1335 44.294 36.4432C44.4645 36.7528 44.5497 37.1676 44.5497 37.6875V42H43.544V41.1136H43.4929C43.4247 41.2557 43.3111 41.4077 43.152 41.5696C42.9929 41.7315 42.7813 41.8693 42.517 41.983C42.2528 42.0966 41.9304 42.1534 41.5497 42.1534ZM41.7031 41.25C42.1009 41.25 42.4361 41.1719 42.7088 41.0156C42.9844 40.8594 43.1918 40.6577 43.331 40.4105C43.473 40.1634 43.544 39.9034 43.544 39.6307V38.7102C43.5014 38.7614 43.4077 38.8082 43.2628 38.8509C43.1207 38.8906 42.956 38.9261 42.7685 38.9574C42.5838 38.9858 42.4034 39.0114 42.2273 39.0341C42.054 39.054 41.9134 39.071 41.8054 39.0852C41.544 39.1193 41.2997 39.1747 41.0724 39.2514C40.848 39.3253 40.6662 39.4375 40.527 39.5881C40.3906 39.7358 40.3224 39.9375 40.3224 40.1932C40.3224 40.5426 40.4517 40.8068 40.7102 40.9858C40.9716 41.1619 41.3026 41.25 41.7031 41.25ZM47.3228 39.6136L47.3058 38.3693H47.5103L50.3739 35.4545H51.6183L48.5671 38.5398H48.4819L47.3228 39.6136ZM46.3853 42V33.2727H47.391V42H46.3853ZM50.5444 42L47.9876 38.7614L48.7035 38.0625L51.8228 42H50.5444ZM53.6456 42.0682C53.4354 42.0682 53.255 41.9929 53.1044 41.8423C52.9538 41.6918 52.8786 41.5114 52.8786 41.3011C52.8786 41.0909 52.9538 40.9105 53.1044 40.7599C53.255 40.6094 53.4354 40.5341 53.6456 40.5341C53.8558 40.5341 54.0362 40.6094 54.1868 40.7599C54.3374 40.9105 54.4126 41.0909 54.4126 41.3011C54.4126 41.4403 54.3771 41.5682 54.3061 41.6847C54.2379 41.8011 54.1456 41.8949 54.0291 41.9659C53.9155 42.0341 53.7876 42.0682 53.6456 42.0682Z" fill="#333238"/>
<path d="M87.1921 26H86.0842L89.2887 17.2727H90.3796L93.5842 26H92.4762L89.8683 18.6534H89.8001L87.1921 26ZM87.6012 22.5909H92.0671V23.5284H87.6012V22.5909ZM94.8072 17.2727H95.8129V24.2955C95.8129 24.6136 95.8484 24.8366 95.9194 24.9645C95.9904 25.0923 96.1367 25.1534 96.3583 25.1477C96.4776 25.142 96.5657 25.1335 96.6225 25.1222C96.6822 25.108 96.7362 25.0938 96.7844 25.0795L96.989 25.9489C96.9009 25.9744 96.7901 25.9972 96.6566 26.017C96.5231 26.0398 96.3839 26.0511 96.239 26.0511C95.7617 26.0511 95.4038 25.9205 95.1651 25.6591C94.9265 25.3977 94.8072 25.0341 94.8072 24.5682V17.2727ZM97.9126 28.4545V19.4545H98.8842V20.4943H99.0036C99.0774 20.3807 99.1797 20.2358 99.3104 20.0597C99.4439 19.8807 99.6342 19.7216 99.8814 19.5824C100.131 19.4403 100.469 19.3693 100.896 19.3693C101.447 19.3693 101.933 19.5071 102.353 19.7827C102.773 20.0582 103.102 20.4489 103.337 20.9545C103.573 21.4602 103.691 22.0568 103.691 22.7443C103.691 23.4375 103.573 24.0384 103.337 24.5469C103.102 25.0526 102.775 25.4446 102.357 25.723C101.94 25.9986 101.458 26.1364 100.913 26.1364C100.492 26.1364 100.156 26.0668 99.9027 25.9276C99.6499 25.7855 99.4553 25.625 99.3189 25.446C99.1825 25.2642 99.0774 25.1136 99.0036 24.9943H98.9183V28.4545H97.9126ZM98.9013 22.7273C98.9013 23.2216 98.9737 23.6577 99.1186 24.0355C99.2635 24.4105 99.4751 24.7045 99.7536 24.9176C100.032 25.1278 100.373 25.233 100.776 25.233C101.197 25.233 101.548 25.1222 101.829 24.9006C102.113 24.6761 102.326 24.375 102.468 23.9972C102.613 23.6165 102.685 23.1932 102.685 22.7273C102.685 22.267 102.614 21.8523 102.472 21.483C102.333 21.1108 102.121 20.8168 101.837 20.6009C101.556 20.3821 101.202 20.2727 100.776 20.2727C100.367 20.2727 100.023 20.3764 99.745 20.5838C99.4666 20.7884 99.2564 21.0753 99.1143 21.4446C98.9723 21.8111 98.9013 22.2386 98.9013 22.7273ZM106.231 22.0625V26H105.225V17.2727H106.231V20.4773H106.316C106.469 20.1392 106.7 19.8707 107.006 19.6719C107.316 19.4702 107.728 19.3693 108.242 19.3693C108.688 19.3693 109.079 19.4588 109.414 19.6378C109.749 19.8139 110.009 20.0852 110.194 20.4517C110.381 20.8153 110.475 21.2784 110.475 21.8409V26H109.469V21.9091C109.469 21.3892 109.335 20.9872 109.065 20.7031C108.798 20.4162 108.427 20.2727 107.952 20.2727C107.623 20.2727 107.327 20.3423 107.066 20.4815C106.808 20.6207 106.603 20.8239 106.452 21.0909C106.305 21.358 106.231 21.6818 106.231 22.0625ZM114.241 26.1534C113.826 26.1534 113.45 26.0753 113.112 25.919C112.774 25.7599 112.505 25.5312 112.306 25.233C112.108 24.9318 112.008 24.5682 112.008 24.142C112.008 23.767 112.082 23.4631 112.23 23.2301C112.377 22.9943 112.575 22.8097 112.822 22.6761C113.069 22.5426 113.342 22.4432 113.64 22.3778C113.941 22.3097 114.244 22.2557 114.548 22.2159C114.946 22.1648 115.268 22.1264 115.515 22.1009C115.765 22.0724 115.947 22.0256 116.061 21.9602C116.177 21.8949 116.235 21.7812 116.235 21.6193V21.5852C116.235 21.1648 116.12 20.8381 115.89 20.6051C115.663 20.3722 115.318 20.2557 114.855 20.2557C114.375 20.2557 113.998 20.3608 113.725 20.571C113.453 20.7812 113.261 21.0057 113.15 21.2443L112.196 20.9034C112.366 20.5057 112.593 20.196 112.877 19.9744C113.164 19.75 113.477 19.5937 113.815 19.5057C114.156 19.4148 114.491 19.3693 114.821 19.3693C115.031 19.3693 115.272 19.3949 115.545 19.446C115.821 19.4943 116.086 19.5952 116.342 19.7486C116.6 19.902 116.815 20.1335 116.985 20.4432C117.156 20.7528 117.241 21.1676 117.241 21.6875V26H116.235V25.1136H116.184C116.116 25.2557 116.002 25.4077 115.843 25.5696C115.684 25.7315 115.473 25.8693 115.208 25.983C114.944 26.0966 114.622 26.1534 114.241 26.1534ZM114.395 25.25C114.792 25.25 115.127 25.1719 115.4 25.0156C115.676 24.8594 115.883 24.6577 116.022 24.4105C116.164 24.1634 116.235 23.9034 116.235 23.6307V22.7102C116.193 22.7614 116.099 22.8082 115.954 22.8509C115.812 22.8906 115.647 22.9261 115.46 22.9574C115.275 22.9858 115.095 23.0114 114.919 23.0341C114.745 23.054 114.605 23.071 114.497 23.0852C114.235 23.1193 113.991 23.1747 113.764 23.2514C113.539 23.3253 113.358 23.4375 113.218 23.5881C113.082 23.7358 113.014 23.9375 113.014 24.1932C113.014 24.5426 113.143 24.8068 113.402 24.9858C113.663 25.1619 113.994 25.25 114.395 25.25Z" fill="#1F75CB"/>
<path d="M144 54H152L148 58L144 54Z" fill="white"/>
</g>
<defs>
<filter id="filter0_dd_1059_29233" x="0" y="0" width="296" height="68" filterUnits="userSpaceOnUse" color-interpolation-filters="sRGB">
<feFlood flood-opacity="0" result="BackgroundImageFix"/>
<feColorMatrix in="SourceAlpha" type="matrix" values="0 0 0 0 0 0 0 0 0 0 0 0 0 0 0 0 0 0 127 0" result="hardAlpha"/>
<feOffset/>
<feGaussianBlur stdDeviation="1"/>
<feComposite in2="hardAlpha" operator="out"/>
<feColorMatrix type="matrix" values="0 0 0 0 0.121569 0 0 0 0 0.117647 0 0 0 0 0.141176 0 0 0 0.16 0"/>
<feBlend mode="normal" in2="BackgroundImageFix" result="effect1_dropShadow_1059_29233"/>
<feColorMatrix in="SourceAlpha" type="matrix" values="0 0 0 0 0 0 0 0 0 0 0 0 0 0 0 0 0 0 127 0" result="hardAlpha"/>
<feOffset dy="2"/>
<feGaussianBlur stdDeviation="4"/>
<feComposite in2="hardAlpha" operator="out"/>
<feColorMatrix type="matrix" values="0 0 0 0 0.121569 0 0 0 0 0.117647 0 0 0 0 0.141176 0 0 0 0.16 0"/>
<feBlend mode="normal" in2="effect1_dropShadow_1059_29233" result="effect2_dropShadow_1059_29233"/>
<feBlend mode="normal" in="SourceGraphic" in2="effect2_dropShadow_1059_29233" result="shape"/>
</filter>
</defs>
</svg>
